1 64 113
1024 256 179
16 65536 340
306250 607100 470
188000 325097 443
738282 415000 509
524288 16 470
64 128 119
8 256 128
1024 4096 238
726 2253 183
109750 168954 383
2048 16384 276
22 47 112
8 2 17
35250 35750 324
301000 447261 449
5 5 6
73392 23703 340
128 524288 470
477500 788547 509
8192 8192 14
1024 262144 443
16384 131072 354
2528 12104 268
170 362 144
183619 71435 383
15062 47138 324
350464 558530 470
623007 683056 509
162250 300235 443
262144 2048 443
22148 45796 324
474330 394000 449
63000 63500 330
512 262144 443
2 6 9
256 65536 340
319750 629918 509
731 2794 209
363250 645781 509
35666 11050 324
33 33 27
4096 4096 13
8192 65536 340
524288 8192 470
810793 555444 509
124250 124750 287
408347 477082 449
7683 6940 257
348250 348750 335
4 131072 354
337 3331 217
115500 199964 383
315 501 144
8192 2 262
8192 262144 443
13500 14000 258
472000 472500 276
64 256 128
70250 70750 312
354500 462101 449
38942 29599 324
27361 29717 272
284410 253250 407
5 8 17
32768 512 308
150813 438183 449
421356 252500 449
1 4 8
265000 485481 449
736966 637243 504
8192 262144 443
262144 256 443
247250 247750 350
1 2 2
122000 122500 256
305250 305750 265
373000 373500 286
45 50 105
248603 252597 350
131072 1024 354
378883 221000 443
349788 224500 443
32768 8 308
524288 4096 470
3850 2813 238
502957 467000 426
8192 64 262
3 9 20
2889 59290 340
8192 16 262
716190 376250 509
999999 16 525
2048 32 182
1 1 1
524288 65536 470
492 243 144
161750 296851 443
569 3910 238
170500 171000 290
561719 447106 470
271250 271750 270
101987 113027 354
8 8192 262
2 2 2
1 524288 470
74885 14523 340
548 693 145
390500 391000 361
64 2 113
103000 158681 383
32768 8 308
6 2 9
326250 591354 470
452000 810627 509
3583 3241 194
145226 89577 375
16384 8192 276
45309 15888 324
1 2 2
131072 131072 18
378750 379250 361
14750 15250 271
130250 152765 375
65536 2048 340
32768 2048 308
64 128 119
116000 200640 383
297314 272970 389
51409 20915 324
41997 28279 324
1024 128 179
64 32 113
3749 2567 238
654 3226 217
40709 31250 324
94250 145567 375
1 4 8
8 65536 340
2 3 8
32 4096 238
409500 410000 281
388282 234956 441
1 2 2
1 1024 179
524288 1 470
29489 11447 308
350966 460912 449
1505 2780 209
12769 10771 268
552803 73376 470
16384 65536 340
7923 28566 308
1 1 1
32768 4096 308
1 65536 340
3 4 8
1024 4 179
128 131072 354
2854 1754 209
631155 476000 509
512 999999 525
3 35 112
2048 262144 443
1942 2382 183
672275 592711 509
866800 474488 525
13 383 144
73250 100463 351
82044 27015 351
558365 458250 470
412250 412750 312
1 2 2
14867 66165 340
452500 568074 470
10250 15182 276
115367 100250 354
8192 1 262
318750 319250 322
140750 215646 383
472314 648168 509
835359 420000 509
2 4 8
3531 5816 238
99500 113763 354
16 32768 308
512 524288 470
12 29 112
36 48 110
3 5 8
40250 60486 340
8 262144 443
64 8 113
32768 1 308
297 135 128
427354 327129 449
454633 243500 449
3 1 8
20405 209310 383
1 16 20
8 262144 443
1 28 112
4199 1014 238
4185 11851 268
265000 486671 449
65536 32768 340
36 1 112
32768 1024 308
316000 476696 449
12250 12750 263
524288 8 470
471250 857907 525
455000 465292 444
32 131072 354
34050 39237 324
524288 262144 470
512 32768 308
4 131072 354
999999 2048 525
219250 413916 449
65536 2048 340
431017 423250 418
302784 38873 443
262144 32768 443
4 524288 470
128 32 119
524288 128 470
128 2048 182
663977 469500 509
628704 383750 509
2 256 128
131072 256 354
603 2666 209
450559 448750 369
246039 141000 443
131072 999999 525
32 64 113
97356 51250 351
524288 524288 20
197250 259499 443
154250 154750 326
512 4096 238
459 267 144
67 12 113
24500 47187 324
162500 239459 443
514367 438385 470
16 32 112
65536 16 340
262144 2 443
300539 440953 449
453557 393250 449
128 131072 354
116 458 144
65536 65536 17
23887 134695 354
3516 4413 238
64 16384 276
1024 524288 470
218 313 131
685 6052 238
5 2 8
1927 3301 217
8 4096 238
270250 270750 407
32737 31811 267
39 14 112
32768 16 308
4 64 113
49 15 112
3311 5537 238
838 379 171
473777 457250 444
512 2048 182
47625 14221 324
73 11 116
256 65536 340
4932 3134 238
8192 16384 276
787869 404250 509
291250 376721 441
524288 512 470
5 4 6
412000 684525 509
187750 188250 316
5 36 112
256 32 128
376858 240750 441
1 5 8
85573 117937 354
77636 41250 351
512 512 10
2 512 144
123745 65750 354
64 8 113
23037 40256 324
512 2 144
517970 763728 509
387 27 144
1 5 8
999999 32768 525
370500 490451 449
2 16 20
12 66 113
32768 1 308
3 2 8
216246 465734 449
104175 59750 351
67413 28632 340
1 4 8
31022 9204 308
1159 1250 182
4 1 8
59150 482953 449
256 8 128
1 5 8
1024 131072 354
1157 1865 182
13 18 21
736687 377500 509
364553 336750 441
524288 32768 470
2 999999 525
181110 154000 383
524288 2048 470
274687 261250 407
1024 524288 470
64 1 113
87130 491219 449
1 32768 308
4 2 8
999999 128 525
524288 32 470
131072 2 354
217000 255913 443
446250 543217 470
264 86 128
931 1214 182
389750 390250 361
61114 473588 449
262144 2 443
2 5 8
128 32 119
247500 248000 319
8 4 17
4 128 119
101891 444272 449
117 38 119
355 171 144
5 5 6
4 4 3
229250 314888 443
256765 199000 443
2 4 8
257250 487288 449
999999 32 525
1 8 17
7633 5340 262
524288 128 470
35 8 112
463000 676889 509
487250 487750 289
606057 386250 470
16 128 119
32768 2048 308
14 42 112
260 108 128
35750 38821 306
267582 240916 407
43930 6948 324
1 4096 238
4 262144 443
219293 306686 443
89276 84000 333
552563 284750 470
999999 16384 525
4096 2048 238
256 32768 308
16384 64 276
38585 60154 340
16771 54785 340
208222 189636 373
2048 32 182
170750 220866 386
93591 54000 351
269750 270250 345
415750 416250 281
201 405 144
8192 32768 308
211 113 125
64 16 113
128 524288 470
684347 347750 509
452674 93044 449
8 524288 470
256 131072 354
81698 16779 351
122500 148158 375
424272 143859 449
256 2048 182
374000 722123 509
251 46 128
117000 117500 274
64 128 119
2828 2750 173
61950 541330 470
421385 319750 449
8 16384 276
262144 524288 470
4 262144 443
262500 449562 449
153286 483406 449
6198 2251 262
296750 489762 449
267390 313352 407
6386 8333 257
262144 512 443
3793 4120 189
88604 123306 354
8 1 17
64 32 113
1024 262144 443
405500 406000 281
32768 256 308
375500 376000 330
1024 1024 11
16 65536 340
1 37 112
307871 141805 443
15920 9000 276
2 3 8
390750 659780 509
51848 78394 351
82246 80750 320
1716 1556 180
33384 10730 308
1 1024 179
16 256 128
21481 60301 340
512 4096 238
45550 7505 324
95525 69952 351
3 2 8
262144 1 443
74 44 116
601 4426 238
43 49 105
308750 309250 278
37 1 112
165750 222524 386
4096 1 238
15886 60217 340
512 1024 179
8192 128 262
398363 47270 443
2 32 112
642082 765439 504
6 60 113
344500 405311 441
16384 131072 354
262144 64 443
256 8 128
524288 65536 470
64 256 128
359500 360000 348
531892 42669 470
287 247 123
64 1024 179
131072 64 354
128000 128500 331
149 341 144
4 66 113
256 262144 443
16 64 113
16 1024 179
4 4 3
65536 2048 340
650512 212150 509
65536 32768 340
18 45 112
58469 42443 340
1024 16384 276
999999 8 525
667396 861628 525
128 512 144
524288 8 470
296 178 128
14720 206691 383
474264 524171 470
1 9 20
16 4096 238
98750 165116 383
41 42 110
1024 64 179
18288 16719 279
8192 128 262
8192 8 262
63250 102274 351
409122 320407 441
191364 108723 383
378582 536401 470
1 262144 443
430 734 171
338788 181000 443
2048 32 182
469750 591987 470
13 30 112
7757 2419 262
2374 935 183
262144 8192 443
16384 256 276
150548 80000 375
491591 537008 470
16 1 20
359500 506567 449
335 86 144
595736 148404 470
8192 16384 276
4096 8 238
11653 38851 324
25606 3060 282
37 47 110
101 119 114
128 8192 262
123750 124250 318
3812 3940 176
65536 2048 340
999999 32768 525
37540 9183 324
401458 445031 449
128 16 119
11 31 112
262250 262750 301
332000 615571 470
5113 4031 215
524288 4096 470
113 312 128
492385 391000 449
1024 2048 182
128296 86555 354
26590 41575 324
1 8192 262
37439 23500 324
495000 552092 470
374170 279000 441
106 365 144
43863 40452 288
524288 32768 470
534593 492985 470
201250 308563 443
4096 64 238
228750 229250 262
537204 331000 470
32768 512 308
256 32768 308
12439 1475 268
3 3 8
16384 16384 15
39895 75817 340
1 524288 470
393 2585 209
73003 354097 443
140259 121750 344
441527 394250 449
4 2 8
306000 306500 309
131072 8192 354
552791 423289 470
465325 89062 449
572629 299500 470
81 93 111
249500 258130 363
4096 999999 525
2 1024 179
441499 149837 449
1 6 9
348750 495473 449
1366 4596 238
43 1 112
32768 16384 308
569595 450000 470
178216 132968 383
8 4 17
23868 30495 308
3 3 8
1024 64 179
37 183 125
5185 3580 238
2 256 128
295744 224500 443
512 8 144
877658 919277 476
2 524288 470
403223 406188 405
2502 692 209
2617 1382 209
4 8 17
276964 215387 443
6500 7000 257
61812 50750 340
492000 540946 470
21818 75490 340
253750 254250 301
1 3 8
609871 317000 470
641 202 144
494000 494500 307
400778 323750 441
39500 76052 340
431750 432250 343
7557 8122 252
64 2 113
4 999999 525
355952 261500 441
1024 2 179
16 524288 470
246250 246750 288
671991 277700 509
2 1 2
264202 694863 509
469500 470000 338
52151 44750 314
65536 32 340
999999 2048 525
131833 152335 375
538846 389250 470
262250 473966 449
262144 262144 19
266177 208250 443
114750 124984 349
131072 512 354
220129 176500 386
7570 5000 262
275000 275500 345
32768 524288 470
140162 84970 354
517595 495000 470
182 214 120
4 4 3
16384 1024 276
512 65536 340
65536 65536 17
416000 545481 470
262144 16384 443
27598 64470 340
65536 128 340
8 131072 354
139500 140000 251
3625 4270 238
1 4 8
62011 34614 340
5235 4559 210
6868 2146 262
128484 111031 349
770654 389000 509
97000 97500 297
52725 346162 443
1102 4477 238
122688 117750 336
999999 262144 525
337000 544617 470
705271 497600 509
298 375 144
27 459 144
481 561 142
22 40 112
2 32768 308
8192 8 262
1024 32 179
195500 196000 329
625 422 142
528211 461500 470
999999 64 525
595462 387604 470
16384 8 276
246250 250859 350
874885 557243 525
16384 128 276
181250 181750 272
2 8192 262
238880 238528 275
4 1 8
55509 58174 322
51 63 113
4096 2 238
8219 50052 324
4096 2 238
173309 121500 383
53250 102994 351
163000 163500 246
1024 16 179
290750 443939 449
44 6 112
1024 512 179
298750 338886 384
357367 507839 449
8 64 113
338060 264750 407
499500 500000 395
572688 349500 470
334225 293392 384
524288 512 470
27 6 112
267 555 144
305897 223434 443
175207 292735 443
8 4 17
4 131072 354
16384 2 276
2048 8192 262
1719 3410 217
32 262144 443
2 3 8
9532 34802 311
236 275 123
512 1024 179
16 32 112
999999 262144 525
512 256 144
2048 999999 525
188250 188750 316
524288 128 470
70057 111586 354
91427 343316 443
557328 599714 434
5 36 112
37179 12390 324
22164 16666 279
833537 725136 468
26624 48903 324
2048 16384 276
999999 131072 525
28 7 112
32768 999999 525
22 4 21
129186 125303 331
255491 219079 443
3281 4442 238
494619 463750 426
19297 74202 340
256 32768 308
1 1 1
418250 418750 343
524288 8192 470
2 4 8
3 65 113
262144 999999 525
4096 16384 276
329392 332912 353
379750 513283 470
80 464 144
128 2048 182
359500 360000 348
4105 953 238
261 481 144
256 999999 525
178500 179000 303
4 5 6
444500 840211 525
524288 4 470
434750 435250 356
25 197 125
524288 64 470
16384 1 276
335000 335500 322
47815 8642 324
370250 370750 286
123211 169401 383
262144 524288 470
371 497 142
402392 264761 441
5 5 6
39 26 112
5 2 8
626435 461025 509
2048 256 182
8 524288 470
23 36 112
4 262144 443
89250 89750 302
262144 512 443
357000 465680 449
2170 194 182
284291 321021 389
284000 530956 470
2048 32 182
82531 49746 351
415687 223000 449
421 15 144
65536 8192 340
1 2 2
140750 141250 282
16 262144 443
451500 798536 509
999999 262144 525
637252 409250 509
4 8192 262
262144 1024 443
1 4 8
38 78 116
118750 126856 336
515 316 144
284250 284750 283
51250 99120 351
3 4 8
145 419 144
32 512 144
430528 262250 449
256 512 144
2048 512 182
473500 861516 525
2 26 24
292544 413990 449
512 1 144
78500 79000 338
291750 292250 296
47 12 112
48 1 112
512 128 144
48710 22668 324
999999 2048 525
882 2515 209
32768 131072 354
131072 262144 443
4 524288 470
2048 1 182
4822 1111 238
332697 223585 443
51939 33000 324
32 65536 340
128 128 8
4096 64 238
28250 55571 340
835730 822367 419
230161 142250 386
37 468 144
47525 18661 324
109609 134103 349
373250 373750 348
86685 274164 443
65536 2 340
52585 31750 340
8 4096 238
74756 23588 340
606 259477 443
179936 937797 525
177250 346972 443
55252 27632 340
4096 1024 238
32768 999999 525
27 52 112
3028 9522 262
465750 466250 307
285500 483777 449
32 2 112
310500 311000 371
2 1024 179
490 970 179
241639 131250 443
500642 78158 449
180842 110000 383
256 64 128
624151 457518 470
1 3 8
131072 128 354
287750 288250 283
65536 1024 340
826433 433250 509
283750 437332 449
173533 195348 365
16384 131072 354
1024 131072 354
693940 892573 525
10 285 128
15 7 20
458000 853430 525
948 1000 143
467 307 144
67348 43386 340
78933 53402 351
8 262144 443
524288 8 470
1 2 2
2158 6129 238
128 2 119
2 32768 308
2 999999 525
262250 262750 301
8 16384 276
524288 64 470
433 350 134
23351 19239 274
2 4 8
378326 284750 441
376250 535016 470
222363 179500 386
457938 291661 449
260500 361179 441
38 70 113
5 2 8
65536 1 340
490750 606958 470
332580 332731 229
471250 587060 470
8 8192 262
262144 524288 470
128 16 119
147718 135000 375
16384 16384 15
41424 7889 324
178395 274086 443
227500 228000 262
524288 999999 525
2 8 17
243975 597913 470
617293 464500 470
128 524288 470
639353 403000 509
80750 81250 320
661887 540245 509
3 1 8
762195 469500 509
243 310 123
197750 198250 329
4 32 112
22 28 112
372750 677957 509
371099 238000 441
476338 303000 449
102250 149998 375
163308 208116 373
1920 2824 209
2 512 144
4010 721 238
32 16 112
17 14 18
238205 377388 441
1 1 1
8192 4096 262
151250 239810 443
83102 307573 443
182130 121583 383
56 495 144
494750 681323 509
2 65536 340
207000 321954 443
751 211 171
225755 228497 368
245353 133750 443
2948 3463 199
69 12 113
723185 538715 509
8 64 113
43000 43500 257
355500 386892 423
256 512 144
5 2 8
26745 109870 354
12 26 24
1 262144 443
1024 4096 238
167229 143250 383
521166 574928 452
11 56 113
3 4 8
32 16384 276
177000 337395 443
671353 463750 509
1024 4 179
50814 31000 324
403409 230000 443
4 1 8
4 512 144
7803 11860 268
190750 191250 254
2 524288 470
84 259 128
66 47 113
64 64 7
8 999999 525
1 2 2
514359 384750 470
2 8 17
3 1 8
371528 381219 423
999999 2048 525
152500 178854 383
32768 32768 16
2935 6171 262
125750 185485 383
113 97 119
55577 54250 260
16384 2 276
431000 640812 509
64243 32750 340
256 8 128
7 302 128
332750 333250 335
